{
    "Afghanistan": "http://www.afghanistan-un.org/",
    "Albania": "http://www.ambasadat.gov.al/united-nations/en",
    "Algeria": "https://www.un.int/algeria/",
    "Andorra": "http://www.mae.ad/",
    "Angola": "http://www.un.int/angola/",
    "Argentina": "http://enaun.mrecic.gov.ar",
    "Armenia": "http://www.un.mfa.am/en/",
    "Australia": "http://www.unny.mission.gov.au/unny/home.html",
    "Austria": "http://www.bmeia.gv.at/en/austrian-mission/austrian-mission-new-york.html",
    "Azerbaijan": "http://www.un.int/azerbaijan/",
    "Bahamas": "http://www.un.int/bahamas/",
    "Bahrain": "http://www.un.int/bahrain",
    "Bangladesh": "http://www.un.int/bangladesh",
    "Barbados": "http://www.un.int/barbados",
    "Belarus*": "http://un.mfa.gov.by/en/",
    "Belgium": "http://www.diplomatie.be/newyorkun/",
    "Belize": "http://www.belizemission.com/",
    "Benin": "http://www.un.int/benin",
    "Bhutan": "http://www.un.int/bhutan",
    "Botswana": "http://www.botswanaun.org/",
    "Brazil": "http://delbrasonu.itamaraty.gov.br/pt-br/",
    "Brunei Darussalam": "http://www.un.int/brunei",
    "Bulgaria": "http://www.mfa.bg/embassies/usapr/setlang/en",
    "Burkina Faso": "http://www.burkina-onu.org/",
    "Burundi": "http://www.burundi-un.org",
    "Cabo Verde*": "http://www.un.int/capeverde",
    "Cambodia": "http://www.cambodiaun.org/",
    "Canada": "http://www.canadainternational.gc.ca/prmny-mponu/",
    "Central African Republic": "http://www.pmcar.org/",
    "Chad": "http://www.un.int/chad",
    "Chile": "http://chileabroad.gov.cl/onu/en/",
    "China": "http://www.china-un.org/eng/",
    "Colombia": "http://www.colombiaun.org/English/Home.html",
    "Comoros": "http://www.un.int/comoros",
    "Congo": "http://www.un.int/congo",
    "Costa Rica": "http://www.un.int/costarica",
    "Croatia*": "http://un.mfa.hr",
    "Cuba": "http://www.cubadiplomatica.cu/onu/EN/Mission.aspx",
    "Cyprus": "http://www.cyprusun.org/",
    "Czech Republic*": "http://www.mzv.cz/un.newyork",
    "Democratic Republic of the Congo*": "http://www.un.int/drcongo/",
    "Denmark": "http://fnnewyork.um.dk",
    "Djibouti": "http://www.un.int/djibouti",
    "Dominican Republic": "http://www.un.int/domrep/",
    "Ecuador": "http://www.un.int/ecuador",
    "Egypt*": "http://www.mfa.gov.eg/english/embassies/egyptian_embassy_NewYork/Pages/default.aspx",
    "El Salvador": "http://www.un.int/elsalvador",
    "Equatorial Guinea": "http://www.un.int/equatorialguinea",
    "Eritrea": "http://www.eritrea-unmission.org",
    "Estonia": "http://www.un.estemb.org/",
    "Fiji": "http://www.fijiprun.org/",
    "Finland": "http://www.finlandun.org/Public/Default.aspx",
    "France": "http://www.franceonu.org/",
    "Gambia (Islamic Republic of the)": "http://www.un.int/gambia",
    "Georgia": "http://un.mfa.gov.ge",
    "Germany*": "http://www.new-york-un.diplo.de/Vertretung/newyorkvn/en/Startseite.html",
    "Ghana": "http://www.un.int/ghana/",
    "Greece": "http://www.mfa.gr/missionsabroad/en/un-en",
    "Grenada": "http://www.un.int/grenada",
    "Guatemala": "http://www.guatemalaun.org",
    "Guinea Bissau": "http://www.un.int/guineabissau",
    "Guyana": "http://www.un.int/guyana",
    "Haiti": "http://www.un.int/haiti",
    "Honduras": "http://www.un.int/honduras",
    "Hungary": "http://www.mfa.gov.hu/kulkepviselet/New_York_ENSZ/en/",
    "Iceland": "http://www.iceland.is/iceland-abroad/un/nyc/",
    "India": "https://www.pminewyork.org/",
    "Indonesia*": "http://mission-indonesia.org/",
    "Iran (Islamic Republic of)": "http://iran-un.org/en/",
    "Iraq": "http://iraqmission.us",
    "Ireland": "http://www.irelandunnewyork.org/",
    "Israel": "http://israel-un.mfa.gov.il/",
    "Italy": "http://www.italyun.esteri.it/rappresentanza_onu",
    "Jamaica": "http://www.un.int/jamaica",
    "Japan": "http://www.un.emb-japan.go.jp/index.htm",
    "Jordan": "http://www.missionjordanun.org/",
    "Kazakhstan": "http://www.kazakhstanun.org/",
    "Kenya": "http://www.kenyaun.org/",
    "Kuwait": "http://www.kuwaitmission.com",
    "Kyrgyzstan": "http://www.un.int/kyrgyzstan",
    "Lao Peopleâ€™s Democratic Republic": "http://www.un.int/lao/",
    "Latvia": "http://www.mfa.gov.lv/en/newyork",
    "Lebanon": "http://www.un.int/lebanon",
    "Lesotho": "http://www.un.int/lesotho/",
    "Liberia": "http://www.liberia-un.org/",
    "Libya*": "http://www.libyanmission-un.org/",
    "Liechtenstein": "http://www.newyork.liechtenstein.li/",
    "Lithuania": "http://mission-un-ny.mfa.lt",
    "Luxembourg": "http://newyork-un.mae.lu/en",
    "Madagascar": "http://www.un.int/madagascar",
    "Malawi": "http://www.un.int/malawi",
    "Malaysia*": "http://www.un.int/malaysia/",
    "Maldives": "http://maldivesmission.com",
    "Mali": "http://www.un.int/mali",
    "Malta": "http://www.un.int/malta",
    "Marshall Islands": "http://www.un.int/marshallislands",
    "Mauritania": "http://www.un.int/mauritania",
    "Mauritius": "http://mfa.govmu.org/portal/sites/mfamission/newyork/index.htm",
    "Mexico": "http://mision.sre.gob.mx/onu/",
    "Micronesia (Federated States of)": "http://www.fsmgov.org/fsmun/",
    "Monaco": "http://www.monaco-consulate.com/?page_id=44",
    "Mongolia": "http://www.un.int/mongolia/",
    "Montenegro*": "http://www.mvpei.gov.me/en/sections/Missions/Missions-of-Montenegro-to-International-Organizati/united-nations",
    "Morocco": "https://www.un.int/morocco/",
    "Mozambique": "http://www.un.int/mozambique/",
    "Myanmar": "http://www.un.int/myanmar",
    "Namibia": "http://www.un.int/namibia",
    "Nauru": "http://www.un.int/nauru/",
    "Nepal": "http://www.un.int/nepal",
    "Netherlands": "http://www.netherlandsmission.org",
    "New Zealand": "http://www.nzembassy.com/home.cfm?...",
    "Nicaragua": "http://www.un.int/nicaragua",
    "Niger": "http://www.un.int/niger/",
    "Nigeria": "http://redesign.nigeriaunmission.org",
    "Norway": "http://www.norway-un.org/",
    "Oman": "http://www.un.int/oman",
    "Pakistan": "http://www.pakun.org/",
    "Palau": "http://www.palauun.org/",
    "Panama": "http://www.panama-un.org/",
    "Papua New Guinea": "http://www.un.int/papuanewguinea",
    "Paraguay": "http://paraguaymissiontotheun.com/",
    "Peru": "http://www.un.int/peru",
    "Philippines": "http://www.un.int/philippines/",
    "Poland": "http://www.un.polemb.net",
    "Portugal": "http://www.onu.missaoportugal.mne.pt/",
    "Republic of Korea": "http://un.mofat.go.kr",
    "Republic of Moldova": "http://www.onu.mfa.md/",
    "Romania": "http://mpnewyork.mae.ro/",
    "Russian Federation*": "http://www.russiaun.ru/en",
    "Rwanda": "http://www.rwandaun.org",
    "Saint Kitts and Nevis": "http://www.stkittsnevis.org/",
    "Saint Lucia": "http://www.saintluciamissionun.org",
    "Saint Vincent and the Grenadines": "http://www.svg-un.org/",
    "Samoa": "http://www.un.int/samoa",
    "San Marino": "http://www.un.int/sanmarino",
    "Sao Tome and Principe": "http://www.un.int/saotomeandprincipe",
    "Saudi Arabia": "http://www.saudimission.org",
    "Senegal": "http://www.un.int/senegal",
    "Serbia*": "http://www.un.int/serbia/",
    "Seychelles": "http://www.un.int/seychelles",
    "Sierra Leone": "http://www.un.int/sierraleone/",
    "Singapore*": "http://www.mfa.gov.sg/newyork/",
    "Slovakia*": "https://www.mzv.sk/web/unnewyork-en/home",
    "Slovenia*": "http://newyork.predstavnistvo.si/",
    "Solomon Islands": "http://www.un.int/solomonislands",
    "Somalia": "http://www.un.int/somalia",
    "South Africa": "http://www.southafrica-newyork.net/",
    "Spain": "http://www.spainun.org",
    "Sri Lanka": "http://www.slmission.com/",
    "Sudan": "http://www.un.int/sudan",
    "Suriname": "http://www.un.int/suriname",
    "Swaziland": "http://www.un.int/swaziland",
    "Sweden": "http://www.swedenabroad.com/en-GB/Embassies/UN-New-York/",
    "Switzerland": "http://www.eda.admin.ch/missny",
    "Syrian Arab Republic*": "http://www.un.int/syria/",
    "Tajikistan": "http://www.tajikistan-un.org",
    "Thailand": "http://www.un.int/thailand",
    "The former Yugoslav Republic of Macedonia*": "http://www.missions.gov.mk/un-newyork/home/",
    "Togo": "http://www.untogo.org",
    "Tonga": "http://www.un.int/tonga/",
    "Trinidad and Tobago": "http://www.un.int/trinidadandtobago",
    "Turkey": "http://turkuno.dt.mfa.gov.tr",
    "Tuvalu": "http://www.un.int/tuvalu",
    "Uganda": "http://www.ugandamissionunny.net/",
    "Ukraine": "http://www.mfa.gov.ua/uno",
    "United Arab Emirates": "http://www.un.int/uae/",
    "United Kingdom of Great Britain and Northern Ireland": "http://ukun.fco.gov.uk/en/",
    "United Republic of Tanzania*": "http://www.tanzania-un.org/",
    "United States of America": "http://www.usunnewyork.usmission.gov/",
    "Uruguay": "http://www.un.int/uruguay/",
    "Uzbekistan": "http://www.un.int/uzbekistan",
    "Vanuatu": "http://www.un.int/vanuatu",
    "Viet Nam": "http://www.vietnam-un.org/en/index.php",
    "Yemen*": "http://www.un.int/yemen",
    "Zambia": "http://www.zambiaun.com/",
    "Zimbabwe": "http://www.un.int/zimbabwe"
}